{"count":323,"next":"https://ll.thespacedevs.com/2.2.0/launch/upcoming/?limit=5&offset=5","previous":null,"results":[{"id":"f57800ca-4125-419b-9913-27c961c24cc8","url":"https://ll.thespacedevs.com/2.2.0/launch/f57800ca-4125-419b-9913-27c961c24cc8/","slug":"long-march-6a-yaogan-40-group-03","name":"Long March 6A | Yaogan 40 Group 03","status":{"id":3,"name":"Launch Successful","abbrev":"Success","description":"The launch vehicle successfully inserted its payload(s) into the target orbit(s)."},"last_updated":"2025-09-06T17:22:19Z","net":"2025-09-06T16:34:00Z","window_end":"2025-09-06T16:52:00Z","window_start":"2025-09-06T16:26:00Z","net_precision":{"id":1,"name":"Minute","abbrev":"MIN","description":"The T-0 is accurate to the minute."},"probability":null,"weather_concerns":null,"holdreason":"","failreason":"","hashtag":null,"launch_service_provider":{"id":88,"url":"https://ll.thespacedevs.com/2.2.0/agencies/88/","name":"China Aerospace Science and Technology Corporation","type":"Government"},"rocket":{"id":8700,"configuration":{"id":478,"url":"https://ll.thespacedevs.com/2.2.0/config/launcher/478/","name":"Long March 6A","family":"Long March","full_name":"Long March 6A","variant":""}},"mission":{"id":7292,"name":"Yaogan 40 Group 03","description":"3 Chinese reconnaissance satellites of unknown purposes, officially reported as for \"Electromagnetic environment probing\".","launch_designator":null,"type":"Government/Top Secret","orbit":{"id":13,"name":"Polar Orbit","abbrev":"PO"},"agencies":[],"info_urls":[],"vid_urls":[]},"pad":{"id":200,"url":"https://ll.thespacedevs.com/2.2.0/pad/200/","agency_id":null,"name":"Launch Complex 9A","description":"","info_url":null,"wiki_url":null,"map_url":"https://www.google.com/maps?q=38.8583,111.5802","latitude":"38.8583","longitude":"111.5802","location":{"id":19,"url":"https://ll.thespacedevs.com/2.2.0/location/19/","name":"Taiyuan Satellite Launch Center, People's Republic of China","country_code":"CHN","description":"The Taiyuan Satellite Launch Center is a People's Republic of China space and defense launch facility. It is situated in Kelan County, Xinzhou, Shanxi Province and is the second of four launch sites having been founded in March 1966 and coming into full operation in 1968.","map_image":"https://thespacedevs-prod.nyc3.digitaloceanspaces.com/media/map_images/location_19_20200803142421.jpg","timezone_name":"Asia/Shanghai","total_launch_count":145,"total_landing_count":0},"country_code":"CHN","map_image":"https://thespacedevs-prod.nyc3.digitaloceanspaces.com/media/map_images/pad_launch_complex_9a_20220330003717.jpg","total_launch_count":17,"orbital_launch_attempt_count":17},"webcast_live":false,"image":"https://thespacedevs-prod.nyc3.digitaloceanspaces.com/media/images/long_march_6a_image_20221109174525.png","infographic":null,"program":[],"orbital_launch_attempt_count":7054,"location_launch_attempt_count":145,"pad_launch_attempt_count":17,"agency_launch_attempt_count":540,"orbital_launch_attempt_count_year":205,"location_launch_attempt_count_year":8,"pad_launch_attempt_count_year":7,"agency_launch_attempt_count_year":39,"type":"normal"},{"id":"a0310ea9-b526-4c9b-b767-90872c1cdafd","url":"https://ll.thespacedevs.com/2.2.0/launch/a0310ea9-b526-4c9b-b767-90872c1cdafd/","slug":"falcon-9-block-5-starlink-group-17-9","name":"Falcon 9 Block 5 | Starlink Group 17-9","status":{"id":6,"name":"Launch in Flight","abbrev":"In Flight","description":"The launch vehicle has lifted off from the launchpad."},"last_updated":"2025-09-06T18:06:58Z","net":"2025-09-06T18:06:39Z","window_end":"2025-09-06T19:42:00Z","window_start":"2025-09-06T15:42:00Z","net_precision":{"id":0,"name":"Second","abbrev":"SEC","description":"The T-0 is accurate to the second."},"probability":null,"weather_concerns":null,"holdreason":"","failreason":"","hashtag":null,"launch_service_provider":{"id":121,"url":"https://ll.thespacedevs.com/2.2.0/agencies/121/","name":"SpaceX","type":"Commercial"},"rocket":{"id":8695,"configuration":{"id":164,"url":"https://ll.thespacedevs.com/2.2.0/config/launcher/164/","name":"Falcon 9","family":"Falcon","full_name":"Falcon 9 Block 5","variant":"Block 5"}},"mission":{"id":7287,"name":"Starlink Group 17-9","description":"A batch of 24 satellites for the Starlink mega-constellation - SpaceX's project for space-based Internet communication system.","launch_designator":null,"type":"Communications","orbit":{"id":8,"name":"Low Earth Orbit","abbrev":"LEO"},"agencies":[{"id":121,"url":"https://ll.thespacedevs.com/2.2.0/agencies/121/","name":"SpaceX","featured":true,"type":"Commercial","country_code":"USA","abbrev":"SpX","description":"Space Exploration Technologies Corp., known as SpaceX, is an American aerospace manufacturer and space transport services company headquartered in Hawthorne, California. It was founded in 2002 by entrepreneur Elon Musk with the goal of reducing space transportation costs and enabling the colonization of Mars. SpaceX operates from many pads, on the East Coast of the US they operate from SLC-40 at Cape Canaveral Space Force Station and historic LC-39A at Kennedy Space Center. They also operate from SLC-4E at Vandenberg Space Force Base, California, usually for polar launches. Another launch site is being developed at Boca Chica, Texas.","administrator":"CEO: Elon Musk","founding_year":"2002","launchers":"Falcon | Starship","spacecraft":"Dragon","launch_library_url":null,"total_launch_count":565,"consecutive_successful_launches":49,"successful_launches":549,"failed_launches":15,"pending_launches":111,"consecutive_successful_landings":0,"successful_landings":510,"failed_landings":27,"attempted_landings":537,"info_url":"https://www.spacex.com/","wiki_url":"https://en.wikipedia.org/wiki/SpaceX","logo_url":"https://thespacedevs-prod.nyc3.digitaloceanspaces.com/media/images/spacex_logo_20220826094919.png","image_url":"https://thespacedevs-prod.nyc3.digitaloceanspaces.com/media/images/spacex_image_20190207032501.jpeg","nation_url":"https://thespacedevs-prod.nyc3.digitaloceanspaces.com/media/images/spacex_nation_20230531064544.jpg"}],"info_urls":[],"vid_urls":[]},"pad":{"id":16,"url":"https://ll.thespacedevs.com/2.2.0/pad/16/","agency_id":null,"name":"Space Launch Complex 4E","description":"Space Launch Complex 4 East (SLC-4E) is a launch site at Vandenberg Space Force Base, California, U.S.\r\n\r\nThe pad was previously used by Atlas and Titan rockets between 1963 and 2005. The pad was built for use by Atlas-Agena rockets, but was later rebuilt to handle Titan rockets.","info_url":null,"wiki_url":"https://en.wikipedia.org/wiki/Vandenberg_Space_Launch_Complex_4#SLC-4E","map_url":"https://www.google.com/maps?q=34.632,-120.611","latitude":"34.632","longitude":"-120.611","location":{"id":11,"url":"https://ll.thespacedevs.com/2.2.0/location/11/","name":"Vandenberg SFB, CA, USA","country_code":"USA","description":"Vandenberg Space Force Base is a United States Space Force Base in Santa Barbara County, California. Established in 1941, Vandenberg Space Force Base is a space launch base, launching spacecraft from the Western Range, and also performs missile testing. The United States Space Force's Space Launch Delta 30 serves as the host delta for the base, equivalent to an Air Force air base wing. In addition to its military space launch mission, Vandenberg Space Force Base also hosts space launches for civil and commercial space entities, such as NASA and SpaceX.","map_image":"https://thespacedevs-prod.nyc3.digitaloceanspaces.com/media/map_images/location_11_20200803142416.jpg","timezone_name":"America/Los_Angeles","total_launch_count":828,"total_landing_count":28},"country_code":"USA","map_image":"https://thespacedevs-prod.nyc3.digitaloceanspaces.com/media/map_images/pad_16_20200803143532.jpg","total_launch_count":214,"orbital_launch_attempt_count":214},"webcast_live":true,"image":"https://thespacedevs-prod.nyc3.digitaloceanspaces.com/media/images/falcon2520925_image_20221009234147.png","infographic":null,"program":[{"id":25,"url":"https://ll.thespacedevs.com/2.2.0/program/25/","name":"Starlink","description":"Starlink is a satellite internet constellation operated by American aerospace company SpaceX","agencies":[{"id":121,"url":"https://ll.thespacedevs.com/2.2.0/agencies/121/","name":"SpaceX","type":"Commercial"}],"image_url":"https://thespacedevs-prod.nyc3.digitaloceanspaces.com/media/images/starlink_program_20231228154508.jpeg","start_date":"2018-02-22T14:17:00Z","end_date":null,"info_url":"https://starlink.com","wiki_url":"https://en.wikipedia.org/wiki/Starlink","mission_patches":[{"id":7,"name":"Space X Starlink Mission Patch","priority":10,"image_url":"https://thespacedevs-prod.nyc3.digitaloceanspaces.com/media/mission_patch_images/space2520x252_mission_patch_20221011205756.png","agency":{"id":121,"url":"https://ll.thespacedevs.com/2.2.0/agencies/121/","name":"SpaceX","type":"Commercial"}}],"type":{"id":3,"name":"Communication Constellation"}}],"orbital_launch_attempt_count":7055,"location_launch_attempt_count":828,"pad_launch_attempt_count":214,"agency_launch_attempt_count":565,"orbital_launch_attempt_count_year":206,"location_launch_attempt_count_year":42,"pad_launch_attempt_count_year":40,"agency_launch_attempt_count_year":116,"type":"normal"},{"id":"2c92e70a-f420-4b4e-823c-a50335b3354a","url":"https://ll.thespacedevs.com/2.2.0/launch/2c92e70a-f420-4b4e-823c-a50335b3354a/","slug":"smart-dragon-3-unknown-payload","name":"Smart Dragon 3 | Unknown Payload","status":{"id":1,"name":"Go for Launch","abbrev":"Go","description":"Current T-0 confirmed by official or reliable sources."},"last_updated":"2025-09-05T13:05:06Z","net":"2025-09-08T19:45:00Z","window_end":"2025-09-08T20:00:00Z","window_start":"2025-09-08T19:39:00Z","net_precision":{"id":2,"name":"Hour","abbrev":"HR","description":"The T-0 is accurate to the hour."},"probability":null,"weather_concerns":null,"holdreason":"","failreason":"","hashtag":null,"launch_service_provider":{"id":272,"url":"https://ll.thespacedevs.com/2.2.0/agencies/272/","name":"China Rocket Co. Ltd.","type":"Commercial"},"rocket":{"id":8702,"configuration":{"id":484,"url":"https://ll.thespacedevs.com/2.2.0/config/launcher/484/","name":"Smart Dragon 3","family":"Smart Dragon","full_name":"Smart Dragon 3","variant":""}},"mission":{"id":7295,"name":"Unknown Payload","description":"Details TBD; probably Geely Constellation Group 05.","launch_designator":null,"type":"Unknown","orbit":{"id":25,"name":"Unknown","abbrev":"N/A"},"agencies":[],"info_urls":[],"vid_urls":[]},"pad":{"id":221,"url":"https://ll.thespacedevs.com/2.2.0/pad/221/","agency_id":88,"name":"Oriental Spaceport mobile launch ship","description":"","info_url":null,"wiki_url":null,"map_url":"https://www.google.com/maps?q=35.391667%2C119.598667","latitude":"35.391667","longitude":"119.598667","location":{"id":3,"url":"https://ll.thespacedevs.com/2.2.0/location/3/","name":"Sea Launch","country_code":"???","description":"","map_image":"https://thespacedevs-prod.nyc3.digitaloceanspaces.com/media/map_images/location_3_20200803142448.jpg","timezone_name":"","total_launch_count":57,"total_landing_count":0},"country_code":"CHN","map_image":"https://thespacedevs-prod.nyc3.digitaloceanspaces.com/media/map_images/pad_oriental_spaceport_mobile_launch_ship_20240529085416.jpg","total_launch_count":4,"orbital_launch_attempt_count":4},"webcast_live":false,"image":"https://thespacedevs-prod.nyc3.digitaloceanspaces.com/media/images/smart_dragon_3__image_20240925074606.jpg","infographic":null,"program":[],"orbital_launch_attempt_count":7056,"location_launch_attempt_count":58,"pad_launch_attempt_count":5,"agency_launch_attempt_count":8,"orbital_launch_attempt_count_year":207,"location_launch_attempt_count_year":4,"pad_launch_attempt_count_year":3,"agency_launch_attempt_count_year":3,"type":"normal"},{"id":"84a2a107-1e44-4994-ad9f-430ee81a741a","url":"https://ll.thespacedevs.com/2.2.0/launch/84a2a107-1e44-4994-ad9f-430ee81a741a/","slug":"falcon-9-block-5-nusantara-lima","name":"Falcon 9 Block 5 | Nusantara Lima","status":{"id":1,"name":"Go for Launch","abbrev":"Go","description":"Current T-0 confirmed by official or reliable sources."},"last_updated":"2025-09-03T23:11:02Z","net":"2025-09-09T00:02:00Z","window_end":"2025-09-09T01:58:00Z","window_start":"2025-09-09T00:02:00Z","net_precision":{"id":1,"name":"Minute","abbrev":"MIN","description":"The T-0 is accurate to the minute."},"probability":null,"weather_concerns":null,"holdreason":"","failreason":"","hashtag":null,"launch_service_provider":{"id":121,"url":"https://ll.thespacedevs.com/2.2.0/agencies/121/","name":"SpaceX","type":"Commercial"},"rocket":{"id":7545,"configuration":{"id":164,"url":"https://ll.thespacedevs.com/2.2.0/config/launcher/164/","name":"Falcon 9","family":"Falcon","full_name":"Falcon 9 Block 5","variant":"Block 5"}},"mission":{"id":5972,"name":"Nusantara Lima","description":"Nusantara Lima is an Indonesian geostationary communications satellite with a capacity of more than 160 Gbps.","launch_designator":null,"type":"Communications","orbit":{"id":2,"name":"Geostationary Transfer Orbit","abbrev":"GTO"},"agencies":[{"id":1070,"url":"https://ll.thespacedevs.com/2.2.0/agencies/1070/","name":"PT Pasifik Satelit Nusantara","featured":false,"type":"Private","country_code":"IDN","abbrev":"PSN","description":"PT Pasifik Satelit Nusantara (PSN) is a private Indonesian satellite telecommunications company.\r\n\r\nIt was formed in 1991 and was the first satellite-based telecommunications company in Indonesia. In 1995, a collaboration started what was to become ACeS (Asia Cellular Satellite system). In 1998, a WAN-based service for corporate customers was introduced.","administrator":"CEO: Adi Rahman Adiwoso","founding_year":"1991","launchers":"","spacecraft":"","launch_library_url":null,"total_launch_count":0,"consecutive_successful_launches":0,"successful_launches":0,"failed_launches":0,"pending_launches":0,"consecutive_successful_landings":0,"successful_landings":0,"failed_landings":0,"attempted_landings":0,"info_url":"https://www.psn.co.id","wiki_url":"https://en.wikipedia.org/wiki/PT_Pasifik_Satelit_Nusantara","logo_url":"https://thespacedevs-prod.nyc3.digitaloceanspaces.com/media/images/pt2520pasifik2520satelit2520nusantara_logo_20230821053114.png","image_url":null,"nation_url":null}],"info_urls":[],"vid_urls":[]},"pad":{"id":80,"url":"https://ll.thespacedevs.com/2.2.0/pad/80/","agency_id":121,"name":"Space Launch Complex 40","description":"","info_url":null,"wiki_url":"https://en.wikipedia.org/wiki/Cape_Canaveral_Air_Force_Station_Space_Launch_Complex_40","map_url":"https://www.google.com/maps?q=28.56194122,-80.57735736","latitude":"28.56194122","longitude":"-80.57735736","location":{"id":12,"url":"https://ll.thespacedevs.com/2.2.0/location/12/","name":"Cape Canaveral SFS, FL, USA","country_code":"USA","description":"Cape Canaveral Space Force Station (CCSFS) is an installation of the United States Space Force's Space Launch Delta 45, located on Cape Canaveral in Brevard County, Florida.","map_image":"https://thespacedevs-prod.nyc3.digitaloceanspaces.com/media/map_images/location_12_20200803142519.jpg","timezone_name":"America/New_York","total_launch_count":1050,"total_landing_count":67},"country_code":"USA","map_image":"https://thespacedevs-prod.nyc3.digitaloceanspaces.com/media/map_images/pad_80_20200803143323.jpg","total_launch_count":332,"orbital_launch_attempt_count":332},"webcast_live":false,"image":"https://thespacedevs-prod.nyc3.digitaloceanspaces.com/media/images/falcon_9_image_20230807133459.jpeg","infographic":null,"program":[],"orbital_launch_attempt_count":7057,"location_launch_attempt_count":1051,"pad_launch_attempt_count":333,"agency_launch_attempt_count":566,"orbital_launch_attempt_count_year":208,"location_launch_attempt_count_year":57,"pad_launch_attempt_count_year":53,"agency_launch_attempt_count_year":117,"type":"normal"},{"id":"5777db03-a5d2-4b4f-956a-d8a2830e8fc8","url":"https://ll.thespacedevs.com/2.2.0/launch/5777db03-a5d2-4b4f-956a-d8a2830e8fc8/","slug":"long-march-7a-unknown-payload","name":"Long March 7A | Unknown Payload","status":{"id":1,"name":"Go for Launch","abbrev":"Go","description":"Current T-0 confirmed by official or reliable sources."},"last_updated":"2025-09-05T13:05:10Z","net":"2025-09-09T02:00:00Z","window_end":"2025-09-09T04:10:00Z","window_start":"2025-09-09T01:52:00Z","net_precision":{"id":2,"name":"Hour","abbrev":"HR","description":"The T-0 is accurate to the hour."},"probability":null,"weather_concerns":null,"holdreason":"","failreason":"","hashtag":null,"launch_service_provider":{"id":88,"url":"https://ll.thespacedevs.com/2.2.0/agencies/88/","name":"China Aerospace Science and Technology Corporation","type":"Government"},"rocket":{"id":8703,"configuration":{"id":216,"url":"https://ll.thespacedevs.com/2.2.0/config/launcher/216/","name":"Long March 7A","family":"Long March","full_name":"Long March 7A","variant":""}},"mission":{"id":7296,"name":"Unknown Payload","description":"Details TBD.","launch_designator":null,"type":"Unknown","orbit":{"id":25,"name":"Unknown","abbrev":"N/A"},"agencies":[],"info_urls":[],"vid_urls":[]},"pad":{"id":176,"url":"https://ll.thespacedevs.com/2.2.0/pad/176/","agency_id":null,"name":"201","description":"","info_url":null,"wiki_url":"https://en.wikipedia.org/wiki/Wenchang_Spacecraft_Launch_Site","map_url":"https://www.google.com/maps?q=19.618452,110.955356","latitude":"19.618452","longitude":"110.955356","location":{"id":8,"url":"https://ll.thespacedevs.com/2.2.0/location/8/","name":"Wenchang Space Launch Site, People's Republic of China","country_code":"CHN","description":"The Wenchang Space Launch Site is a rocket launch site located in Wenchang on the island of Hainan, in China.\r\n\r\nFormally a suborbital test center, it currently serves as China's southernmost spaceport. The site was selected for its low latitude, 19° north of the equator, allowing for larger payloads to be launched. It is capable of launching the Long March 5, the heaviest Chinese rocket. Unlike launch facilities on the mainland, Wenchang uses its seaport for deliveries.","map_image":"https://thespacedevs-prod.nyc3.digitaloceanspaces.com/media/map_images/location_8_20200803142445.jpg","timezone_name":"Asia/Shanghai","total_launch_count":44,"total_landing_count":0},"country_code":"CHN","map_image":"https://thespacedevs-prod.nyc3.digitaloceanspaces.com/media/map_images/pad_176_20200803143412.jpg","total_launch_count":24,"orbital_launch_attempt_count":24},"webcast_live":false,"image":"https://thespacedevs-prod.nyc3.digitaloceanspaces.com/media/images/long_march_7a_image_20210311201838.jpg","infographic":null,"program":[],"orbital_launch_attempt_count":7058,"location_launch_attempt_count":45,"pad_launch_attempt_count":25,"agency_launch_attempt_count":541,"orbital_launch_attempt_count_year":209,"location_launch_attempt_count_year":11,"pad_launch_attempt_count_year":5,"agency_launch_attempt_count_year":40,"type":"normal"}]}